{
    "count": 4,
    "next": "http://localhost:8000/api/v1/organizations/cadasta/projects/export-tests/spatial/?limit=2&offset=2",
    "previous": null,
    "results": {
        "type": "FeatureCollection",
        "features": [
            {
                "type": "Feature",
                "geometry": {
                    "type": "Polygon",
                    "coordinates": [
                        [
                            [
                                -57.65624999999999,
                                -30.145127183376115
                            ],
                            [
                                -58.71093750000001,
                                -34.37971258046219
                            ],
                            [
                                -54.66796875,
                                -36.38591277287651
                            ],
                            [
                                -53.173828125,
                                -33.87041555094182
                            ],
                            [
                                -53.173828125,
                                -31.87755764334002
                            ],
                            [
                                -57.12890625,
                                -30.06909396443886
                            ],
                            [
                                -57.65624999999999,
                                -30.145127183376115
                            ]
                        ]
                    ]
                },
                "properties": {
                    "id": "3t56e3me9e9krur5ftifsjdt",
                    "type": "PA",
                    "attributes": {
                        "profil_kebun12": 18,
                        "profil_kebun5": [
                            "gelombang"
                        ],
                        "profil_kebun8": "",
                        "profil_kebun3": "",
                        "profil_kebun10": 4,
                        "profil_kebun11": 5,
                        "profil_kebun6": 2,
                        "profil_kebun7": 3,
                        "profil_kebun9": "",
                        "profil_kebun2": 1
                    }
                }
            },
            {
                "type": "Feature",
                "geometry": {
                    "type": "Polygon",
                    "coordinates": [
                        [
                            [
                                24.921225286652113,
                                60.14935271120949
                            ],
                            [
                                24.92222637615322,
                                60.14908991700298
                            ],
                            [
                                24.921526984857927,
                                60.14840732483581
                            ],
                            [
                                24.920519038579418,
                                60.14867353746651
                            ],
                            [
                                24.921225286652113,
                                60.14935271120949
                            ]
                        ]
                    ]
                },
                "properties": {
                    "id": "6ikwpzz5g3ynfvwrk56r9cw5",
                    "type": "",
                    "attributes": {}
                }
            }
        ]
    }
}