{
    "count": 4,
    "next": "http://localhost:8000/api/v1/organizations/cadasta/projects/export-tests/resources/?limit=2&offset=2",
    "previous": null,
    "results": [
        {
            "id": "0",
            "name": "foo_0",
            "description": null,
            "file": "https://s3-us-west-2.amazonaws.com/cadasta-test-bucket/resources/img1.jpg",
            "original_file": "baz0",
            "archived": false,
            "mime_type": "",
            "links": [
                {
                    "id": "abcd",
                    "type": "project"
                },
                {
                    "id": "export-tests",
                    "type": "project"
                },
                {
                    "id": "export-tests",
                    "type": "project"
                }
            ]
        },
        {
            "id": "1",
            "name": "foo_1",
            "description": null,
            "file": "https://s3-us-west-2.amazonaws.com/cadasta-test-bucket/resources/img2.jpg",
            "original_file": "baz1",
            "archived": false,
            "mime_type": "",
            "links": []
        }
    ]
}